RELEASE NOTES BKZ-Cockpit

Release "Schwesternuhr" (Spr-38) (06.April.2016)

==================
= Neue Funktionen
==================

(iso-a9453-i)
	
	Der neue Report Auftragsübersicht wurde implementiert.
	
	Mit dem Report Auftragsübersicht kann sich der Benutzer für einen angegebenen Zeitraum für eine Menge von Debitoren
	relevante Aufträge und Auftragspositionen anzeigen lassen.

============================================================================

Release "Lamport-Uhr" (Spr-36) (09.März.2016)

==================
= Neue Funktionen
==================

(iso-a3643-i)
	
	Im "Umbuchungs"-Report kann man nun ebenfalls die Buchungsnotiz ändern.

(iso-a7681-i)
	
	Im Umbuchungs - Report ist es ist nun möglich Buchungen per Mail vorzubereiten, die vorher auf Grund fehlender
	Berechtigungen herausgefiltert wurden. Diese sind nun durch ein "Stop" - Icon gekennzeichnet.

(iso-a8524-i)
	
	Im "Umbuchungs"-Report erscheint nun ein Vorhängeschloss-Icon neben dem Datum einer Stundenbuchung, falls das
	ausgewählte Ziel-BKZ zu diesem Zeitpunkt gesperrt ist. 
	Solche Stundenbuchungen kann zukünftig nur noch Finance umbuchen lassen.

(iso-a9477-i)
	
	Beim Report "Abrechnung" kann nun nach Mitarbeitern gefiltert werden.

============================================================================

Release "Schaltuhr" (Spr-32) (13.Januar.2016)

==================
= Neue Funktionen
==================

(iso-a9405-i)
	
	Der Abrechungsreport erzeugt nun PDF-Dateien in einem dafür vorgesehen Ordner.
    
==============
= Fehlerbehebungen
==============

(iso-a8981-i)
	
	Die Auswahl eines Users für den user-spezifischen Aufruf des BC wurde so vereinfacht, dass der User durch Eingabe irgendeines Teils des Namens oder Kürzels gefunden wird.

============================================================================

Release "Sternzeituhr" (Spr-30) (02.Dezember.2015)

===================
= Fehlerbehebungen
===================

(iso-a9097-i)
	
	Es wurde ein Fehler behoben, durch den bei Verwendung von leeren Mitarbeitergruppen bei einigen Reporttypen zu viele Daten angezeigt wurden.

============================================================================

Release "Formuhr" (Spr-29) (18.November.2015)

==================
= Neue Funktionen
==================

(iso-a8868-i)
	
	Das Suchfeld im Fenster "Auswahl Buchungsbaumelemente" enthält den neuen Button "Suchen und Selektieren". 
    Wird der neue Button angeklickt, dann werden alle Knoten/BKZs selektiert die den gesuchten Begriff im Namen enthalten. 

===================
= Fehlerbehebungen
===================

(iso-a9282-i)
	
	Ein Zeitzonen-Problem beim Report "Umbuchen" wurde behoben. Durch diesen Fehler wurden falsche Werte bei der Spalte 
    "Datum" angezeigt.

============================================================================

Release "Hydrochronometer" (Spr-23) (26.August.2015)

==================
= Neue Funktionen
==================

(iso-a8926-i)
	
	Der Report "Monatsende" wird nun standardmäßig nach dem Nachnamen sortiert.

===================
= Fehlerbehebungen
===================

(iso-a8953-i)
	
	Es wurde ein Fehler bei der Darstellung der im Dialog "Umbuchungsauftrag per Mail" behoben.

============================================================================

Release "Astronomische Uhr" (Spr-22) (12.August.2015)

===================
= Fehlerbehebungen
===================

(iso-a8842-i)
	
	Beim Umbuchen-Report wird nun ebenfalls der letzte Abrechnungszeitraum aus Zahlungspaketen des Ziel-BKZs
	überprüft, um zu bestimmen, ob Stunden umgebucht werden können.

============================================================================

Release "Vogeluhr" (Spr-18) (17.Juni.2015)

==================
= Neue Funktionen
==================

(iso-a8151-i)
	
	Überschneiden sich Abwesenheiten eines Mitarbeiters zeitlich, dann werden diese im "Abwesenheitskalender"-Report in mehrere separate Zeilen aufgeteilt.

(iso-a8355-i)
	
	Beim "Umbuchen"-Report wurde die E-Mail die durch den Dialog "Umbuchungsauftrag per Mail vorbereiten" erzeugt wird, folgendermaßen modifiziert:
    - Am Anfang des E-Mail Bodys steht nun das gewünschte Ziel-BKZ
    - Das Ziel-BKZ wurde bei der Auflistung der einzelnen Stundenbuchungen entfernt. 

(iso-a8424-i)
	
	Beim Report "Buchungsübersicht" können nun Std-Buchungen nach dem Notiztext gefiltert werden.

(iso-a8547-i)
	
	Beim Report "Buchungsübersicht" können nun gesperrte Knoten mit der Option "Ohne gesperrte Knoten" herausgefiltert werden.   
    
===================
= Fehlerbehebungen
===================
     
(iso-a8586-i)

	Beim Report "Buchungsübersicht" wurde der Rest- und Sollaufwand auf der obersten Ebene versehentlich verdoppelt, wenn der Report ebenfalls "Kosten und Erlöse" enthielt.
    
============================================================================

Release "Längenuhr" (T-Spr-11) (30.April.2015)

==================
= Neue Funktionen
==================

(iso-a8197-i)
	
	Im "Status"-Report wird der Stundensatz nun anhand der im Buchungsbaum hinterlegten Werte ermittelt.

(iso-a8355-i)
	
	Der Report "Umbuchen" wurde um folgende Funktionen erweitert:
	- Eine neue Spalte, die die PDB-Meldungs-ID verlinkt anzeigt (sofern in der Buchungsnotiz vorhanden)
	- Eine neues Selektionsfeld, mit dem das Ziel-BKZ auch noch innerhalb der Reportanzeige geändert werden kann, ohne den Report neu generieren zu müssen
	- Ein neuer Button "Umbuchungsauftrag per Mail vorbereiten", über den eine E-Mail an buchungsbaum@iso-gruppe.com mit den umzubuchenden Stunden generiert werden kann

(iso-a8360-i)
	
	Im "Status"-Report werden nun auch offene Stunden aus elektronischen Aufwandsbestätigungen (eAB) als Restaufwände ausgewiesen.


============================================================================


Release "Stimmgabeluhr" (T-Spr-10) (20.März.2015)

==================
= Neue Funktionen
==================

(iso-a8144-i)

	Beim Report "Buchungsübersicht" gibt es nun eine neue Option, den Buchungsbaum nach Buchungstypen zu reduzieren.

===================
= Fehlerbehebungen
===================

(iso-a8233-i)

	Im Excel-Export der Buchungsübersicht wurde die überflüssige Spalte "Kommentar" entfernt


============================================================================


Release "Automatikuhr" (T-Spr-9) (19.Februar.2015)

==================
= Neue Funktionen
==================

(iso-a7361-i)
	
	Report: Buchungsübersicht
	Beschreibung: Der Soll- und Restaufwand wird nun bis zum Wurzel-Knoten aggregiert.

(iso-a8128-i)
	
	Report: Buchungsübersicht
	Beschreibung: In der Spalte „Restaufwand“ steht nun hinter dem Wert der Monat auf den sich der Restaufwand bezieht. Bei aggregierten Restaufwänden wird aber weiterhin kein Monat angezeigt.

(iso-a8129-i)
	
	Report: Buchungsübersicht
	Beschreibung: Der Wert „0“ wird nun in der Spalte „Restaufwände“ angezeigt.


============================================================================


Release "Shortt-Uhr" (T-Spr-7) (15.Dezember.2014)

===================
= Fehlerbehebungen
===================

(iso-a7946-i)
	
	Es wurde ein Ferhler behoben, durch den es nach Umbuchungen zur inkorrekten Darstellung von Stundenbuchungen
	in PrismaWeb kommen konnte.

==================
= Neue Funktionen
==================

(iso-a3683-i)
	
	Der Report "BB-Auftrag" wurde um die Spalte "MA für Restaufwand" ergänzt.


============================================================================


Release "8-Tage-Uhr" (T-Spr-5) (22.Oktober.2014)

==================
= Neue Funktionen
==================

(iso-a7677-i)
	
	Beim Umbuchen-"Report wird die Breite der Spalte "Umbuchen auf" in der Zusassamenfassung nun dynamisch anhand
	der Länge des BKZ-Namens ermittelt.

(iso-a7678-i)
	
	Beim Umbuchen-Report wird nun ein Bestätigungsdialog angezeigt, bevor Stunden einen Buchungstyp, der nicht dem
	Standard des jeweiligen BKZs entspricht, umgebucht werden.

(iso-a7680-i)
	
	Für die Generierung des Reports "Umbuchen-Log" muss nun mindestens ein Knoten oder Set ausgewählt werden.

(iso-a7681-i)
	
	Benutzer mit dem Recht "Umbuchen nach dem letzten Quartalsbeginn" sehen im Report "Umbuchen" nun keine
	Stundenbuchungen mehr, die zu einem abgerechneten Zahlungspaket gehören, dessen Abrechnungszeitraum sich innerhalb
	des konfigurierten Zeitraums befindet. In diesem Fall wird bei Generierung des Reports ein entsprechender Dialog
	angezeigt, der darauf hinweist.

(iso-a7725-i)
	
	Im Report "Monatsabschluss" gibt es nun eine neue Konfigurationsoption "Nur eine Zeile pro Mitarbeiter". Wird ein
	Report mit dieser Konfiguration erstellt, so wird konfigurierten Zeitraum pro Mitarbeiter nur eine Zeile mit den
	(je nach Spalte) letzten bzw. summierten Werten angezeigt.

(iso-a7785-i)
	
	Im Report "Monatsabschluss" gibt es nun eine neue optionale Spalte "Abrechenbare Stunden".

===================
= Fehlerbehebungen
===================

(iso-a7783-i)
	
	Es wurde ein Fehler im Report "Monatsabschluss" bei der Berechnung der Werte für die Spalten "Urlaub bisher" und
	"Krankheitstage" behoben.

(iso-a7872-i)
	
	Es wurde ein Fehler beim Report "Monatsabschluss" behoben, dass Mitarbeiterzeilen mit 0 Sollstunden nicht angezeigt
	werden, obwohl es weitere Zeilen gibt, bei denen die Sollstunden nicht 0 sind.


============================================================================


Release "Hauptuhr" (T-Spr-1) 11.Juni.2014

===================
=== Neue Funktionen
===================

(iso-a7039-i)
	
	Im Report "Umbuchen" sind die Zeilen nun selektierbar. Aufeinanderfolgende Zeilen werden außerdem abwechselnd mit
	einer leicht unterschiedlichen Hintergrundfarbe angezeigt.

(iso-a7115-i)
	
	Beim Report "Monatsabschluss" gibt es nun eine weitere Optionale Spalte "Ist-Ü-Std", welche die in dem jeweiligen
	Monat geleisteten Überstunden (unabhängig vom Stundensaldo) ausgibt

=============
=== Bugfixes
=============

(iso-a7145-i)
	
	In der Oberflächendarstellung des Status-Reports werden die Werte für "Restaufwand" und "Abweichung" nun ebenfalls
	dargestellt, wenn der Wert für "Restaufwand" 0 beträgt


============================================================================


Release "Stechuhr" (R3.21) 14.Mai.2014

===================
=== Neue Funktionen
===================

(iso-a6975-i)
	
	Im Abwesenheitskalender wurden die Kommentare für die folgenden Abwesenheitsarten entfernt:
		- Krankheit
		- Urlaub
		- Urlaub beantragt, noch nicht genehmigt
		- Mutterschutz

(iso-a6976-i)
	
	In der Konfigurations-Ansicht wurde die Auswahlliste für den Zeitraum um die Option "Nächsten 6 Monate" erweitert.
	Die neue Option ermittelt den Zeitraum dynamisch nach folgenden Algorithmus: Datum an dem der Report angezeigt wird + 6 Monate


============================================================================


Release "Wecker" (R3.20) 16.April.2014

===================
=== Neue Funktionen
===================

(iso-a6789-i)
	
	Im Status-Report gibt es eine neue Konfigurationsoption, um Zeilen, bei denen 
		- Stunden oder Erträge im Zeitraum oder seit (Jahres-)Beginn
		- Stunden oder Erträge im Zeitraum
		- Stunden im Zeitraum
	nicht vorhanden sind, herauszufiltern.

=============
=== Bugfixes
=============

(iso-a6857-i)
	
	Im Report "BB-Auftrag" werden die Datumswerte in den Spalten "Buchbar ab" und "Gesperrt ab" nun immer korrekt
	dargestellt.

(iso-a6891-i)
	
	Im Report BB-Auftrag wurde der fehlende Knotentyp "SAP-Buchung" ergänzt. Zudem wurde sichergestellt, das zukünftige
	Knotentypen automatisch ergänzt werden.


============================================================================


Release "Smartwatch" (R3.19) 19.März.2014

===================
=== Neue Funktionen
===================

(iso-a5624-i)
	
	Der Report "Monatsabschluss" wurde um drei weitere optionale Spalten erweitert:
		- Krankheitstage
		- Urlaub bisher
		- Urlaub genehmigt

(iso-a6789-i)
	
	Der Report "Status" wurd um folgende Funktionalität erweitert:
		- Im Abschnitt "SW-Pflege" werden nun auch die "PAX"-Beträge mit eingerechnet
		- Knoten, die als "Eigene Zeile" ausgewählt wurden, werden nun immer beim ersten Elternelement aus der
		  Hauptdarstellung angezeigt, sofern vorhanden
		- Knoten, die als "Eigene Zeile" ausgewählt wurden, werden nun immer nach der letzten dargestellten
		  Informationsart des zugehörigen Elternelements, sofern vorhanden, dargestellt
		- In der Konfiguration gibt es nun die Möglichkeit, den Report "Ohne gesperrte Knoten" anzuzeigen. Ist diese
		  Option aktiviert, werden gesperrte Knoten, die Ausgangspunkt aus gefunden wurden, nicht mit berücksichtigt.
		  Knoten, die als "Eigene Zeile" ausgewählt wurden, sind hiervon nicht betroffen.


============================================================================


Release "Parkuhr" (R3.18) 05.Februar.2014

===================
=== Neue Funktionen
===================

(iso-a6420-i)
	
	Die Liste der auswählten Mitarbeiter/Gruppen in generierten Excel-Exportdateien ist nun auf maximal 10 Elemente
	beschränkt. Wenn mehr Elemente angezeigt werden müssen, wird der Vermerk "Siehe Kommentar" in der Zelle angezeigt
	und die Mitarbeiter/Gruppen im darunterliegenden Tooltip angezeigt.

(iso-a6421-i)
	
	Die Generierung des Excel-Exports aller betreffenden Reports wurde angepasst, sodass nun standardmäßig im
	Seitenlayout "Querformat" mit Breite "1 Seite" und Höhe "Automatisch" eingestellt ist.

=============
=== Bugfixes
=============

(iso-a6385-i)
	
	Im Report "BB-Auftrag" werden nun Projektnummern und Auftragseinheitsnummern von Knoten korrekt angezeigt.

(iso-a6496-i)
	
	Die Kopfzeile "Ausgewählte Buchungsbaumelemente" im Export des Reports "Bereitschaft" wird nun immer korrekt
	angezeigt.

(iso-a6535-i)
	Es wurde ein Fehler behoben, durch den nach Speichern und erneutem Laden eines Profils die Auswahlkästchen im
	Buchungsbaum bei selektierten Mitarbeitern/Gruppen nicht mehr angezeigt wurden.


============================================================================


Release "Konstatieruhr" (R3.17) 12.Dezember.2013

===================
=== Neue Funktionen
===================

(iso-a4916-i)
	
	Die Version 4.2.2 des JavaScript Frameworks ExtJS wurde eingespielt. Laut Herstellerangaben wird nun der IE10 wird
	offiziell unterstützt. Desweiteren wurden einige Bugs behoben. 


============================================================================


Release "Taucheruhr" (R3.16) 21.November.2013

===================
=== Neue Funktionen
===================

(iso-a5795-i)
	
	Der CSV Export für den Listen Report wurde entfernt

=============
=== Bugfixes
=============

(iso-a6147-i)
	
	Beim Laden eines Unterknotens wird nun eine Lade-Animation angezeigt.

(iso-a6258-i)
	
	Es tritt kein Fehler mehr auf, wenn man im Report BB-Auftrag den Knoten "ISO-Gruppe" ausgewählt hat.


============================================================================


Release "Sternuhr" (R3.15) 16.Oktober.2013

===================
=== Neue Funktionen
===================

(iso-a5616-i)
	
	Beim Öffnen der Dialoge zur Selektion von Knoten/Sets oder Mitarbeiter/Gruppen wird nun initial automatisch das
	Suchfeld fokussiert, sodass die Eingabe des Suchbegriffs bei Bedarf direkt erfolgen kann.

(iso-a5687-i)
	
	Beim Umbuchen Report können nun mehrere Ausgangsknoten ausgewählt werden. Zudem wurde die Darstellung bei der 
	Knotenauswahl leicht angepasst, um für mehr Klarheit zu sorgen.

(iso-a5876-i)
	
	In der Reportkonfiguration kann beim Zeitraum nun der Wert "Alles" ausgewählt werden. Bei Auswahl dieses Wertes 
	wird der Report mit allen Daten vom 01.01.2012 (01.01.2013 bei einigen SAP-bezogenen Reports) bis zum aktuellen 
	Tag generiert.

(iso-a5975-i)

	Benutzer mit dem Privileg "Umbuchen nach dem letzten Monatsabschluss" bekommen nun einen Hinweis, wenn sie beim
	Report "Umbuchen" einen Zeitraum angegeben, welcher abgeschlossene Monate beinhaltet. Bei Bestätigen wird der
	Report generiert, die betroffenen Monate aber nicht mit berücksichtigt.

=============
=== Bugfixes
=============

(iso-a5855-i)
	
	Es wurde ein Fehler im "Umbuchen" Report behoben, der dazu führte, dass keine Stundenbuchungen angezeigt wurden.


============================================================================


Release "Spezial-Quantenuhr" (R3.14) 05.September.2013

=============
=== Highlight
=============

(iso-a5605-i)
	
	Beim BKZ-Cockpit wurde das Laden und das Suchen im Buchungsbaum beschleunigt.

===================
=== Neue Funktionen
===================

(iso-a4666-i)
	
	Während des Ladens des BKZ-Cockpits erscheint nun eine grafische Darstellung, die den Ladevorgang anzeigt.

(iso-a5617-i)
	
	Während des Generierens eines Excel-Files für einen Report wird jetzt ein passender grafischer Hinweis angezeigt.

(iso-a5663-i)
	
	Der Report "Liste" wurde ergänzt um einige optionale Spalten.

(iso-a5691-i)

	Der Report "Buchungsübersicht" zeigt nun Stunden- und Eurowerte mit Tausendertrennzeichen an.

=============
=== Bugfixes
=============

(iso-a4511-i)
	
	Ein Fehler bei dem Excel-File des Reports "Monatsabschluss" wurde behoben. Das Excel-File zeigt nun genau die
	gleichen Spalten an wie der Report in der GUI.

(iso-a5622-i)
	
	Ein Fehler wurde bei der Suche nach Buchungsbaumelementen behoben: Jetzt kann man auch Texte bei der Suche
	verwenden, die eine Klammer enthalten.

(iso-a5680-i)
	
	Ein Endlos-Laden wurde gefixt beim Report "Abwesenheitskalender".


============================================================================


Release "Binäruhr" (R3.13) 23.Juli.2013

=============
=== Highlight
=============

(iso-a5069-i)
	
	Der neue Report vom Typ "Status" zeigt seine Daten jetzt auch direkt im BKZCockpit an.

===================
=== Neue Funktionen
===================

(iso-a5610-i)
	
	Die Hilfe beim BKZCockpit wurde aktualisiert. Jetzt hat jeder Report seine eigene Dokumentation.

(iso-a5588-i)
	
	Bei einem MIS-Report werden die angegebenen Abgrenzungswerte zu Beginn eines Zeitraums jetzt mit umgekehrtem Vorzeichen verwendet.


============================================================================


Release "Alkoholuhr" (R3.12) 12.Juni.2013

===================
=== Neue Funktionen
===================

(iso-a4930-i)
	
	Die Menge der Spalten bei MIS-Bereich- und MIS-Gesamt-Reports wurde reduziert, indem Werte von Kommentar-Spalten nun in Form von Kommentaren bei anderen Spalten angezeigt werden.

=============
=== Bugfixes
=============

(iso-a5264-i)
	
	Die neuen Buchungstypen "CR" und "MC" werden nun auch vom Reporttyp "SAPKey-Stunden" unterstützt


============================================================================


Release "Fliegeruhr" (R3.11-BookingType) 27.Mai.2013

=============
=== Highlight
=============

(iso-a5264-i)
	
	Erweiterung der Buchungstyp-Werte
	==========================

	In Absprache mit den Kollegen von Finance wurde die Menge der Buchungstypen erweitert: Zu den Werten FP (=Festpreis-Projekte), TM (=Time&Material=NachAufwand) und NA (=Nicht Abrechenbar) kommen die Werte CR (=ChangeRequests) und MC (=Maintenance) hinzu.
	Mit dieser Erweiterung kann genauer festgelegt werden, welche Art von Stunden bei einem BKZ eingetragen werden. 

	Finance ist bereits den ganzen Buchungsbaum durchgegangen und hat die neuen Buchungstyp-Werte CR und MC schon bei den entsprechenden Buchungsbaum-Elementen und BKZs gesetzt.
	Auch die Stundenbuchungen der so geänderten BKZs wurden schon mit den neuen Buchungstyp-Werten versehen.

	Die Änderung zeigt sich
	a) beim Umbuchungs-Report:
	Hier kann man jetzt Stunden auch auf die Buchungstypen CR und MC umbuchen
	b) beim Report „Buchungsübersicht“:
	Wenn man die Option „Stunden pro Buchungstyp“ wählt, bekommt man jetzt zusätzlich die gebuchten Stunden angezeigt, die zum Buchungstyp „CR“ und „MC“ gehören.

	Wenn ihr neue Elemente im Buchungsbaum haben möchtet und dazu den Report „BB-Auftrag“ oder die QM-Elemente QMF-011 (Projektkalkulation) oder QMF-041 (Buchungsbaum Änderungsauftrag) nutzt, werdet ihr dort die auch die ergänzten Buchungstyp-Werte finden.

	Diese Änderung hat keine Auswirkung auf den Vorgang der Stundenbuchung mit PrismaWeb.


===================
=== Neue Funktionen
===================

(iso-a4930-i)
	
	Beim MIS-Report werden jetzt ggf. vorkommende Kommentare als Kommentare zu den Excel-Zellen dargestellt, sodass der Report jetzt zwei Spalten weniger enthält.


============================================================================


Release "Blumenuhr" (R3.11) 08.Mai.2013

=============
=== Highlight
=============

(iso-a5069-i)
	
	Der neue Report "ProjektStatus" steht nun zur Verfügung. Die Geschäftsleitung, Bereichsleiter und Projektleiter erhalten durch diesen Report für einen Kunden Kennzahlen für die Betrachtungsebenen Festpreis-Projekt, CRs, Dienstleitungen und SW-Pflege (=Wartung).
	SAP-Daten bezüglich Wartungsvertragserlösen und fakturierte Beträge für CRs und Dienstleistungen werden bei dem Report berücksichtigt.


===================
=== Neue Funktionen
===================

(iso-a5101-i)
	
	Es wurde eine zyklische Überprüfung eingebaut, die die Session auf ihre Gültigkeit hin überprüft. 

(iso-a4846-i)
	
	Bei dem Report "Buchungsübersicht" werden nun "Tag frei" Buchungen anzeigt, falls nur Mitarbeiter ausgewählt wurden und ebenfalls die Option "Mitarbeiterbuchungen" selektiert wurde.

(iso-a4511-i)
	
	Der Report "Monatsabschluss" wurde um folgende Spalten erweitert:
		- Eintrittsdatum
		- Status

	Ebenfalls wurde die Filteroption "Auch Mitarbeiter einer angegebenen Gruppe anzeigen, die im angegebenen Zeitraum immer 0 Wochenstunden haben" neu hinzugefügt 

(iso-a4930-i)
	
	Die neuen Reports "MIS Bereich" und "MIS Gesamt" stehen nun für bereichsbezogene Kennzahlen zur Verfügung. Diese Reports werden von der Finance-Abteilung bereitgestellt und genutzt.


============================================================================


Release "Öllampenuhr" (R3.10) 08.März.2013

===================
=== Neue Funktionen
===================

(iso-a4511-i)
	
	Beim Report "Monatsabschluss" kann nun eine weitere optionale Spalte 
	"Austrittsdatum" angezeigt werden.

(iso-a4680-i)
	
	Mitarbeiter, die während des gesamten konfigurierten Zeitraums 0 
	Wochenstunden haben, werden nun nicht mehr im Report "Nicht gebucht" angezeigt.

(iso-a4718-i)
	
	Mitarbeiter mit 0 Wochen- und IST-Stunden werden nun trotzdem im Report 
	"Monatsabschluss" angezeigt, sofern sie per Einzelselektion in der 
	Reportkonfiguration ausgewählt wurden.

(iso-a4741-i)
	
	Die Überschrift wurde von "BKZ-Cockpit (2012)" in "BKZ-Cockpit" geändert.

=============
=== Bugfixes
=============

(iso-a4776-i)
	
	Sonderzeichen werden im Report "Umbuchen-Log" nun richtig dargestellt.

(iso-a4807-i)
	
	Es wurde ein Fehler behoben, der auftrat, wenn man während dem Umbuchen oder 
	direkt danach zum Reiter "Konfiguration" wechselte.

(iso-a4843-i)
	
	Im Report "Monatsabschluss" werden nun wie vorgesehen alle Bereiche eines 
	Mitarbeiters pro Monat angezeigt.


============================================================================


Release "Kerzenuhr" (R3.9) 04.Februar.2013

=============
=== Highlight
=============

(iso-a4511-i)
	
	Der Report "Monatsabschluss" kann jetzt auch optional folgende zum Mitarbeiter
	gehörenden Daten für die ausgewählten Monate anzeigen: Firma, Bereich,
	Urlaubsgenehmiger, Führungsverantwortlicher, Wochenstunden, Jahresurlaub.

=============
=== Bugfixes
=============

(iso-a4506-i)
	
	Jetzt wird nach dem Schließen des letzten Report-Tab immer der Tab
	"Gespeicherte Profile" angezeigt.

(iso-a4533-i)
	
	Ein Report des Typs "Diagramm" wird nun auch angezeigt, wenn im Feld
	"Buchungsnotiz" ein Text angegeben wurde.


============================================================================


Release "Weihnachtsuhr" (R3.8) 17.Dezember.2012

=============
=== Highlight
=============

(iso-a4204-i)
	
	Neuer Report "Abwesenheitskalender"
	Funktionalität:
		- Der Report zeigt alle Abwesenheiten innerhalb des ausgewählten Zeitraums an.
		- Abwesenheiten werden auf einem Zeitstrahl dargestellt.
		- Ebenfalls werden Urlaubsanträge mit dem Status "offen" angezeigt
		- Optional: Gruppen können separat dargestellt werden.
		- Optional: Es werden nur Mitarbeiter mit Abwesenheiten angezeigt.
		- Excel Export möglich 

===================
=== Neue Funktionen
===================

(iso-a4059-i)
	
	Der Report "Bereitschaft" hat eine neue Sortierreihenfolge: "Firma",
	"Mitarbeiterkürzel", "Datum".

(iso-a4291-i)
	
	Dem Report BB-Auftrag wurden die Spalten "Gesperrt ab" oder "Buchbar ab"
	neu hinzugefügt.

=============
=== Bugfixes
=============

(iso-a4222-i)
	
	Der Button "Konfiguration leeren" löscht nun alle Konfigurationseinstellungen,
	inklusive ausgewählte Mitarbeiter und Gruppen.


============================================================================


Release "Funkuhr" (R3.7) 19.November.2012

===================
=== Neue Funktionen
===================

(iso-a3658-i)
	
	Anfragen bezüglich Änderungen an Berechtigungen können nun direkt über den Button 
	"Berechtigungsänderung" im Menü oben rechts eingeleitet werden. Ein Klick auf diesen Button 
	öffnet eine E-Mailvorlage, die an den zuständigen Verteiler adressiert ist.

(iso-a4059-i)
	
	Es gibt nun einen neuen Report "Bereitschaft" für die Auswertung von Bereitschaftszeiten. Zur 
	Verwendung dieses Reports wird eine entsprechende Berechtigung benötigt.

=============
=== Bugfixes
=============

(iso-a4031-i)
	
	Es wurden einige veraltete Parameter entfernt, die zu Problemen bei Downloads im Internet 
	Explorer führten.


============================================================================


Release "Atomkriegsuhr" (R3.6) 15.Oktober.2012

===================
=== Neue Funktionen
===================

(iso-a3804-i)
	
	Wenn eine Gruppe im BKZCockpit folgendes Namensmuster hat "Bereichsnummer -- Name",
	dann werden alle Mitarbeiter berücksichtigt, die während des Report Zeitraums in diesem Bereich gearbeitet haben.

(iso-a3945-i)
	
	Es werden nun deutlich weniger Serveranfragen beim initialen Laden des BKZ-Cockpits versendet.
	
(iso-a3948-i)
	
	Optimierung der Caching Verwaltung, um Probleme mit dem Browsercache zu vermeiden.
	
=============
=== Bugfixes
=============

(iso-a3929-i)
	
	In den Release Notes werden nun auch Umlaute korrekt dargestellt.
	
(iso-a3939-i)
	
	Ein Fehler wurde behoben, der beim Wechsel vom Report "Umbuchen"(mit ausgewählten Ziel-BKZ) zu dem Report "Umbuchen-Log" auftritt.
	Dadurch entstand bei der Generierung des Reports "Umbuchen-Log" nicht valide Daten.

(iso-a3980-i)
	
	Bei der Erstellung eines Reports werden nicht mehr alle Daten von den Mitarbeitern und Knoten zurückgegeben,
	wenn man kein Set oder Knoten und zusätzlich eine Gruppe mit keinen Mitarbeitern ausgewählt hat.
	
(iso-a3981-i)
	
	Es kommt nun nicht mehr zu einem Oberflächenfehler, wenn einem Mitarbeiter die Rechte für den Reporttyp,
	den er im BKZ-Cockpit als letztes generiert hat, entzogen werden.
	
(iso-a4023-i)
	
	 Es wurde ein Fehler behoben, der bei Mehrfachbuchungen durch einen Mitarbeiter auf das gleiche BKZ
	 an einem Tag zu falschen Werten im Tabellenreport führte, sofern die Option "Alle BKZs" ausgewählt war.


============================================================================


Release "Vektoruhr" (R3.5) 27.September.2012

===================
=== Neue Funktionen
===================

(iso-a3517-i)
	
	Bei dem Report "Buchungsübersicht" ist nun möglich mehrere Ebenen auf einmal zu öffnen. Hierzu muss 
	man den gewünschten Knoten zuerst auswählen und dann in der Toolbar die neu hinzugefügten Buttons 
	(1, 2 und 3) mit der entsprechenden Tiefe anklicken.

(iso-a3659-i)
	
	Es dürfen nur noch folgende Zeichen für einen Profilnamen verwendet werden: a-zA-Z0-9äüöÄÜÖß_+-()[]

(iso-a3590-i)
	
	Mit dem Report "Umbuchen" kann man nun auch Stunden von Urlaubs BKZs umbuchen. Dies ist aber nur 
	möglich wenn das Ziel BKZ auch ein Urlaub BKZ ist.

(iso-a3596-i)
	
	Die Version 4.1.1 des JavaScript Frameworks ExtJS wurde eingespielt.
	Laut Herstellerangaben soll die Performance 30% - 50% gesteigert worden sein.
	Außerdem wurden viele kleinere Bugs behoben.

(iso-a3607-i)
	
	Wenn bei dem Report "Liste" nach Gruppen oder Mitarbeiter gesucht wird, besteht die Möglichkeit 
	sich die Anwesenheitszeiten der jeweiligen Tage anzeigen zu lassen. Hierzu muss man den Button 
	"Anwesenheitszeiten zeigen" drücken.

(iso-a3672-i)
	
	Bei dem Dialog "Ausgewählte Knoten/BKZs" ist es nun möglich mit dem "SAP-Key" oder mit der 
	"Debitornummer" nach einem Knoten zu suchen. Hierzu muss man bei der Dropdown-Liste bei 
	"Suchen nach:" den gewünschten Parameter auswählen.

(iso-a3683-i)
	
	Der Aufbau des Excel Exports von dem Report "BB-Auftrag" wurde geändert. Dieser besitzt nun die 
	Worksheets "Übersicht" und "BB-Auftrag". Das Worksheet "BB-Auftrag" enthält den Buchungsbaum.

(iso-a3912-i)
	
	Der Report "BB-Änderungen" wurde in "BB Änderungsliste" umbenannt.

(iso-a3913-i)
	
	In der vom Report "BB-Auftrag" generierten Excel-Datei hat die Spalte ""Einrückung"" nun ebenfalls 
	einen grünen Hintergrund versehen, um wie bei den anderen Spalten zu verdeutlich, dass diese Spalte 
	verändert werden darf.

=============
=== Bugfixes
=============

(iso-a3618-i)
	
	Fehlerbehebung bei der Berechnung von IST-Stunden

(iso-a3890-i)
	
	Es wurde ein Fehler beseitigt, der bei wiederholtem Generieren von Reports mit vielen Daten die 
	Gesamtperformance des BKZ-Cockpits kontinuierlich verschlechterte.


============================================================================


Release "Armbanduhr" (R3.4) 23.Juli.2012

===================
=== Neue Funktionen
===================

(iso-a2230-i)
	
	Die Reporttypen "Abrechnung" und "BB-Auftrag" besitzen nun eine Lademaske.

(iso-a3435-i)
	
	Bei der Auswahl des Zeitraums wurden einige Label wie folgt umbenannt:
	"Relativer Zeitraum" => "Zeitraum"
	"keine" => "Selbst definiert"

(iso-a3501-i)

	Beim Report "Monatsabschluss" ist es nun möglich einen längeren Zeitraum als einen 1 Monat auszuwählen.
	Dieser Zeitraum muss aber am ersten Ersten eines Monats beginnen und am letzen Tag eines Monats aufhören.

	Beim Report "Monatsabschluss" wurden nach den Spalten "Urlaubs-Änderung"und "Std-Änderung" 
	die Spalte "Grund" hinzugefügt.

=============
=== Bugfixes
=============

(iso-a3545-i)

	Der Export eines "Listen" Reports mit dem IE9 ist nun wieder möglich. Man wird nicht mehr
	auf die "Gespeicherte Profile" Ansicht weitergeleitet.


============================================================================


Release "Glasenuhr" (R3.3) 18.Juni.2012

=============
=== Bugfixes
=============

(iso-a1091-i)
	IGF-2528: der Umbuchungsreport ermöglicht nun auch das Umbuchen von Stundenbuchungen auf nicht Blättern.


============================================================================


Release "Eieruhr" (R3.2) 14.Mai.2012

===================
=== Neue Funktionen
===================

(iso-a1815-i):
	
	Bei allen Datumsfeldern sind nun folgende Datumseingaben valide: 'TT.Mon.JJJJ', 'TT.MM.JJJJ' und 'MM/TT/JJJJ'
	
(iso-a2029-i):

	Bei dem Tab 'Gespeicherte Profile' wurden alle Aktionselemente pro Zeile in die Spalte 'Aktionen' zusammengeführt.	
	
(iso-a1091-i)

	Bei der Zusammenfassung wird neben dem Ziel-BKZ der zugehörige Standardbuchungstyp angezeigt.

(iso-a2017-i)
	
	Beim Reporttyp "Tabelle" steht die einblendbare Spalte 'SAPKey'  neu zur Verfügung. Sie zeigt zu jedem Knoten, sofern vorhanden, den zugehörigen SAPKey an.

(iso-a1723-i)

	Der neue Report "BB-Auftrag" stellt ein Excelsheet bereit, mit dem man bequem Änderungen am Buchungsbaum festlegen kann. 
	Diese Änderungs-Definitionen können dann per Mail an buchungsbaum@(iso-gruppe.com geschickt werden.	

(iso-a1941-i)	

	Der neue Report "Rebook-Log" zeigt  Stunden-Umbuchungen sowie Stundenänderungen nach Monatsabschluss für
	die gewählten Teile des Buchungsbaums an.	
	
(iso-a2249-i)

	Die Darstellungsreihenfolge der Reporttypen beim Tab "Konfiguration" wurde verbessert.	
	
(iso-a2229-i)
	
	Die Hilfe wurde aktualisiert und es existiert nun eine neuer Hilfe-Link in der Konfigurations-Ansicht. Dieser Link zeigt eine spezielle Hilfe zu dem aktuell ausgewählten Report an.	
	
(iso-a1240-i)

	Die Knoten eines Sets werden im Dialogfenster "Ausgewählte Knoten/BKZs" angezeigt.
	
(iso-a0770-i)

	Es besteht nun die Möglichkeit, seine gespeicherten Profile mit anderen Usern zu teilen.
	Diese werden dann in dem Tab 'Gespeicherte Profile' angezeigt. Die geteilten Profile können von 
	den anderen Usern nicht verändert oder gelöscht werden.	
	
(iso-a1821-i)	

	Es existiert nun ein Infopopup, das bei Ablauf der Session angezeigt wird. Bei Klick auf den OK-Button wird die Anwendung neu geladen, um eine neue Session aufzubauen.
	
(iso-a1823-i)

	Es werden beim Dialog zur Definition von Mitarbeitern nun auch Mitarbeiter vorgeschlagen, wenn man nur zwei Buchstaben in das Suchfeld eingibt.
	
(iso-a1946-i)	

	Im Reporttyp "Tabelle" können nun auch Knoten angezeigt werden, die keine Blätter im Buchungsbaum sind. Die ausgewählten Knoten zeigen die Summenwerte der zugehörigen Unterknoten an.
	Des Weiteren kann konfiguriert werden, ob auf der X-Achse die Stunden der Mitarbeiter oder Stunden pro Monat angezeigt werden sollen.	

=============
=== Bugfixes
=============

(iso-a1234-i):
	
	Die Ausführungsgeschwindigkeit des Reports "Mitarbeiterbuchung" wurde erheblich gesteigert.

(iso-a1091-i):

	Es ist nun möglich, eine Dezimalzahl mit einem Komma einzugeben.

(iso-a0884-i):

	Falls beim Reporttyp "Buchungsübersicht" keine BKZs, aber Mitarbeiter oder Gruppen ausgewählt sind und
	ebenfalls "Stunden pro Buchungstyp anzeigen" ausgewählt wurde, dann werden die Buchungen jetzt angezeigt.
	Darstellungsfehler des Cursors wurde behoben. 
	
(iso-a1240-i):

	Probleme bei der zyklischen Report-Versendung mit Profilen, die ein Umlaut in ihren Namen haben, wurden behoben.	


============================================================================


Release "Wasseruhr" (R2.3) 30.September.2011

=============
=== Highlight
=============

	"Neus Profil" Button

=============
=== Bugfixes
=============

(iso-9670-i)
	
	IGF-1892: Fehlermeldung falls weder Knoten noch Mitarbeiter ausgewaehlt wurden

(iso-a0769-i)

	Es kann jetzt ein relativer Zeitraum fuer einen Report festgelegt werden

(iso-a0766-i)

	Excel-Export eines Reports kann automatisiert per Mail versendet werden


============================================================================


Release "Sanduhr" (R2.2) 07.September.2011

=============
=== Bugfixes
=============

(iso-9670-i)
	
	IGF-1804: Alle Zahlen beim Report-Typ 'Tablle' haben jetzt 2 Nachkommastellen
	IGF-1805: Einheit beim Report-Typ 'Tablle' jetzt in Klammern
	IGF-1806: Tabellenkopfzeile beim Report-Typ 'Liste' jetzt angepinnt, sodass sie auch beim nach unten Scrollen sichtbar ist
	IGF-1822: Der Button 'Alle hinzufuegen' im Administrationsdialog funktioniert wieder
	IGF-1823: Auch inaktive Mitarbeiter werden angezeigt und kursiv dargestellt
	IGF-1824: Javascript Fehler beim Report-Typ 'Liste' beseitigt
	IGF-1825: Beim Report-Typ 'Mitarbeiterbuchung' kann jetzt auch der Zeitraum vor dem letzten Monat ausgewertet werden; Aktueller Tag und Tage in der Zukunft werden nicht beruecksichtigt
	IGF-1826: Dropdownbox beim Report-Typ 'Liste' leassst nun keine Eingabe mehr zu
	IGF-1844: Button 'AL-Stunden' beim Report-Typ 'Tabelle' funktioniert jetzt
	IGF-1871: Sortierug der gespeicherten Profile ist jetzt nicht mehr von Gross-/Kleinschreibung abhaengig
	

============================================================================


Release "Quarzuhr" (R1.12) 04.August.2010

=============
=== Highlight
=============

(iso-9094-i) Tagesgenauer Zeitraum 

Es ist jetzt möglich auch tagesgenaue Zeiträume anzugeben.
Es können aber auch weiterhin monatsgenaue Angaben gemacht werden.

The Eingabe Muster ist JJJJ/MM[/TT].

===================
=== Neue Funktionen
===================

(iso-9075-i) Anzeige von AL- und Normalen-Stunden für einen Mitarbeiter  	 

In der Ansicht "Tabelle" gibt es jetzt die Möglichkeit die AL-Stunden anzuzeigen.

Die AL Stunden werden über einen Button im Kopfbereich ein und ausgeblendet.

Diese Werte werden exportiert.
----------------------------------------------------


(iso-9136-i) Anzeige von Prozentwerten für Summierte Aufwände pro BKZ in der Tabllen-Ansicht 

Es gibt eine neue Spalte in der Ansicht "Tabelle"

Es werden Prozentwerte für die summierten Aufwände pro BKZ angezeigt.

Die Spalte lässt sich über einen Button im Kopfbreich ein und ausbelden.
Die Prozentwerte werden exportiert.
----------------------------------------------------


(iso-8951-i) Suche nach allen Buchungen eines bestimmten Mitarbeiters

Bisher war es nur möglich nach einem bestimmten Mitarbeiter einzuschränken. 
Jetzt kann man auch nach mehreren Mitarbeitern auswählen.
Die Auswahlliste ist jetzt eine Mehrfachauswahlliste.


============================================================================


Release "Atomuhr" (R1.11) 30.Jun.2010

=============
=== Highlight
=============

(iso-8951-i) Suche nach allen Buchungen eines bestimmten Mitarbeiters 

Im BKZ-Cockpit ist es jetzt möglich, nach Buchungen von bestimmten Mitarbeitern zu suchen.
Die Suchmöglichkeit kann nur durch das Toolteam freigeschaltet werden.

Wenn die Suchmöglichkeit für Mitarbeiter freigeschaltet und ein Mitarbeiter ausgewählt wurde, kann man wie folgt vorgehen:
- Wenn BKZs ausgewählt werden, bekommt man die Buchungen des Mitarbeiters im ausgewählten Zeitraum bei den ausgewählten BKZs.
- Wenn das Feld mit den ausgewählten BKZs leer bleibt, bekommt man alle Buchungen des Mitarbeiters im ausgewählten Zeitraum, egal auf welchem BKZ gebucht wurde.


===================
=== Neue Funktionen
===================

(iso-7474-i) Suche nach PDB-ID
Es ist jetzt möglich, nur die Stundenbuchungen zu suchen, die einen bestimmten Text in der Notiz stehen haben. 
So kann man jetzt zum Beispiel alle Stunden suchen, bei denen in der Notiz eine bestimmte PDB-MeldungsID vorkommt.
Es gibt zwei Anwendungsmöglichkeiten für diese Suche:
- Wenn BKZs ausgewählt werden, bekommt man die Stunden-Buchungen mit entsprechendem Notiz-Text im ausgewählten Zeitraum bei den ausgewählten BKZs.
- Wenn das Feld mit den ausgewählten BKZs leer bleibt, bekommt man alle Stunden-Buchungen mit entsprechendem Notiz-Text im ausgewählten Zeitraum, egal auf welchem BKZ gebucht wurde.
----------------------------------------------------


(iso-9027-i) Tabelle kann nicht exportiert werden 

Die Tabellen-Ansicht ist jetzt in Excel- und CSV-Format exportierbar.
----------------------------------------------------


(iso-8942-i) Änderungen an Textangaben zu Mitarbeitern 

Die Angaben zu den Mitarbeitern wurden überarbeitet. Es handelt sich um die Angaben, die angezeigt werden, wenn ein Diagramm für den aktuellen Monat erstellt wird und zusätzlich ein Projekt ausgewählt wurde.
Es sind jetzt nur noch diese Angaben vorhanden:
- "Am letzten Arbeitstag buchten auf ausgewählte BKZs: <Liste von Mitarbeitern>"
- "An mindestens einem Tag im Monat buchten überhaupt nicht: <Liste von Mitarbeitern>"
Feiertage sowie Samstag und Sonntag werden nicht als Arbeitstage berücksichtigt.


============================================================================


Release "Turmuhr" (R1.10) 09.Dez.2009

(iso-7544-i) Chart-Konfiguration benutzerfreundlicher gestalten 

Die angezeigten Steuerelemente im Chart-Konfigurationsbereich hängen jetzt von den Anzeige Modi ab (Diagramm, Liste, Tabelle):
- Für Diagramm werden alle benötigt
- Für Tabelle und Liste werden nur die Steuerlemente "Zeitraum" und "Stunden von"


============================================================================


Release "Sonnenuhr" (R1.9) 30.Sep.2009

(iso-7673-i) Sortierung bei "Liste"

Es ist jetzt möglich die Einträge in der Liste zu sortieren. Es kann nach allen vorhandenen Spalten sortiert werden: "Datum", "Mitarbeiter", "BKZ", "Stunden", "Notiz" und "MeldungsID".


============================================================================	


Release "Taschenuhr" (R1.7) 01.Jul.2009

(iso-7327-i) Exportfunktionalität hinzufügen

Die Daten einer Liste können nun direkt in Excel oder als CSV-Format exportiert werden. Es stehen zwei verschiedene Dateien zur Verfügung: -Inhalt der Liste mit den entsprechenden Buchungen-Infos zu den PDB-Meldungen zu den PDB-IDs in den Notizen.

(iso-7401-i) Fehlerhaftes Verhalten bei Listengenerierung

Die Performance bei der Berechnung der Daten wurde erneut verbessert. Die Berechnung der Chart-Profile erfolgt nur noch einmal am Tag. Der Aufwand eines Chart-Profils wird nur noch berechnet, wenn ein Chart-Profil ausgewählt wurde.

(iso-7457-i) Logout-Seite nach dem Drücken auf den Logout Button

Der Logout-Button leitet jetzt auf eine Hinweisseite weiter, die darauf aufmerksam macht, dass die Session gelöscht wurde.Zusätzlich wird erklärt, dass augrund des eingeführten SingleSignOn der User weiterhin automatisch eingeloggt wird, sobald er BKZ-Cockpit erneut öffnet.

(iso-7464-i) Suchfunktionalität bei Liste

Wenn im BKZCockpit die Liste angezeigt wird, ist es möglich die Menge der Ergebnisse durch eine Suche einzuschränken. Der Filter kann entweder auf eines der Felder "Mitarbeiter", "BKZ" und "Notiz" oder auf alle diese Felder angewendet werden.

(iso-7465-i) Bereitstellung von Infos zu PDB-Meldungen bei Liste

In der Listendarstellung wurde eine neue Spalte "MeldungsIDs" hinzugefügt. Die Spalte enthält alle MeldungsIDs die in den Notizen vorkommen. Die MeldungsIDs sind direkt zur PDB verlinkt und haben einen Tooltip in denen Informationen zur Meldungs präsentiert werden.

(iso-7473-i) Überschrift unabhängig vom Scrollen machen

Wenn im BKZ-Cockpit eine Liste angezeigt wird, bleibt beim Scrollen die Zeile mit dem Überschriften immer ganz oben sichtbar.


============================================================================


Release "Standuhr" (R1.6) 14.Mai.2009


(iso-7388-i) Wiederholte Einblendung der Infoseite

Die Infoseite des BKZCockpits wird nur noch beim ersten Login eines Users eingeblendet.


(iso-7401-i) Fehlerhaftes Verhalten bei Listengenerierung 

Bei der Berechnung der Daten wurden diverse Datenbankfunktionen so überarbeitet,
dass die Verarbeitung schneller von statten geht. Damit wird verhindert, dass es zu 
einem Timeout und somit einem Abbruch des Skriptes kommt.


============================================================================


Release "Pendeluhr" (R1.5) 07.Apr.2009


(iso-6643-i) Überarbeitung Tooltip-Hilfe

Die Hilfe-Texte die als Tooltip erscheinen, wenn mit der Maus auf die 
Fragzeichen-Icons gegangen wird, wurden überarbeitet.


(iso-6883-i) Leistungsbeschreibung des Produktes

Für das BKZ-Cockpit gibt es jetzt eine Leistungsbeschreibung.
Diese kann über den Produkt-Link im Kopfbereich auf der 
Produktwahlseite aufgerufen werden.


(iso-6931-i) Userauthentifizierung mit Kerberos durchführen

Die Authentifizierung eines Users wurde von der Standard "User/Passwort" 
Methode auf eine integrierte Windows-Authentifizierung umgestellt. 
D. h. der User der zur Zeit an dem Rechner in der Domäne "isoad" angemeldet ist, 
wird automatisch im BKZ-Cockpit eingeloggt. 
Ist der User nicht in der Domäne angemeldet oder der Browser für eine 
integrierte Windows-Authentifizierung nicht ausgelegt bzw. nicht korrekt 
konfiguriert erscheint ein Popup, in dem das Kürzel und Passwort der Domäne 
(Windows-Login) abgefragt wird. 
Existiert der User nicht oder ist dieser nicht als aktiv gekennzeichnet, dann 
wird dieser automatisch auf eine Fehlerseite umgeleitet. 
Das gleiche passiert, wenn der User keine Berechtigung für BKZ-Cockpit besitzt. 
Durch den "automatischen" Login eines Users entfällt die bisherige Login-Seite. 
Um weiterhin Installationen ankündigen zu können, wird in solchen Fällen 
direkt zu Beginn eine Seite angezeigt, die diese Informationen bei Bedarf enthält. 
Mit einem Klick auf den Link im unteren Bereich kommt man zum BKZ-Cockpit. 
Damit weiterhin die Sprache des Tools geändert werden kann, wurde im Kopfbereich 
des BKZ-Cockpits ein Link (Flagge Großbritanien - Deutschland) hinzugefügt. 
Ein Klick auf diesen startet den BKZ-Cockpit jeweils in der anderen 
Sprache (deutsch bzw. englisch). 
Informationen über BKZ-Cockpit (aktuelles Release, Datum der letzten Installation, 
Release-Notes, Link zum Tool-Team) erhält man mittels des Info-Links (Info-Icon), 
welches sich ebenfalls oben links befindet (neben dem Link zum Ändern der Sprache). 
Ein Klick öffnet ein neues Browserfenster, das die gewünschten Informationen enthält.


(iso-7158-i) IST-Werte bei Report nicht nachvollziehbar

Fehler bei der IST-Wert Berechnung in den Report-Mails wurde behoben. 
Der IST-Wert wird jetzt korrekt berechnet.


============================================================================


Release "Bahnhofsuhr" (R1.4) 12.Feb.2009


(iso-6927-i) Verfahren der IST-Wert Berechnung bei gesperrten Knoten/BKZs verbessern

Bei der Berechnung des IST-Werts eines Chart-Profils werden jetzt alle Buchungen 
auf alle BKZs (auch gesperrte BKZs) innerhalb der konfigurierten Menge von 
Knoten/BKZs berücksichtigt. 
Die bisherige Option "gesperrte BKZs berücksichtigen" bezieht sich nur noch auf
die Suche nach Knoten/BKZs. Hier sind die beiden Radio-Buttons durch zwei
normale Buttons ersetzt worden, die einmal die Suche ohne gesperrte Knoten/BKZs 
und einmal die Suche mit gesperrten Knoten/BKZs anstossen.


(iso-6906-i) Verhalten bei inaktiven Chart-Profilen zu undurchsichtig 

In der BKZCockpit-Mail wird bei inaktiven Chart-Profilen ein Hinweis ausgegeben,
dass dieses Chart-Profil inaktiv ist. Auf die Anzeige von weiteren Daten zum
Chart-Profil wird verzichtet.
Bei inaktiven Chart-Profilen wird auf der Oberfläche des BKZCockpits der 
IST-Wert nicht mehr mit angezeigt. Bei der Auswahl eines solchen Chart-Profils
erscheint ein Popup, das den Anwender darauf hinweist, zu welchen Knoten/BKZs
ihm die Berechtigung fehlt. 


(iso-6741-i) Anzeige mit im Profil speichern

Die Auswahl der Anzeige wird beim Speichern eines Chart-Profils ebenfalls 
gespeichert. Beim Laden eines Chart-Profils wird dann automatisch in die 
gespeicherte Anzeige (Diagramm, Tabelle, Liste) gewechselt.
   

============================================================================


Release "Kuckucksuhr" (R1.3) 12.Dez.2008

(iso-6729-i) Automatische Mail-Generierung 

Im BKZCockpit ist es jetzt möglich sich von Montag - Freitag eine Statusmail bzgl.
aller gespeicherten Chart-Profile zu senden zu lassen.
Die Statusmail enthält alle aktiven Chart-Profile, deren Bis-Zeitraum größer 
gleich dem Vormonat ist. 
Bei jedem Chart-Profil wird der Name, der Zeitraum, die aktuellen IST-Stunden, 
die IST-Stunden des Vortags sowie alle ausgewählten EinzelBKZs mit IST-Buchungen 
(Aktuell u. Vortag) angezeigt. Zusätzlich wird das Chart-Profil mit einen Hinweis
versehen, wenn das Limit tendenziell überschritten wurde.
In der Oberfläche des BKZ-Cockpits kann ausgewählt werden, ob die Statusmail
immer versendet werden soll, nie oder wenn mindestens ein Chart-Profil
von einer Limitüberschreitung betroffen ist. Bei letzterem Modus werden nur die
Chart-Profile in der Mail gelistet, deren Limit überschritten wurde.
(Standardmäßig ist die Statusmail nicht aktiv!)


============================================================================


Release "Big Ben" (R1.2) 12.Nov.2008

(iso-6676-i) Tool für die Auflösung 1024x768 bereitstellen
Das Tool unterstützt nun die Auflösung 1024x.768. 


(iso-6677-i) Diverse Oberflächenelemente sollen je nach vorheriger Aktion 
			 ein- bzw. ausgeblendet sein. 
Je nach Aktion werden diverse Oberflächenelemente ein- bzw. ausgeblendet.
Ausgeblendete Oberflächenelemente können manuell durch neu geschaffene Buttons 
oder anhand der Pfeile im rechten oberen Bereich des Elements wieder eingeblendet 
werden.


============================================================================


Release "Digitale Stoppuhr" (R1.1) 09.Okt.2008

(iso-6524-i) Berücksichtigung von gesperrten BKZs ein-/ausschaltbar
Mittels zweier Radio Button ist es jetzt möglich, die Berücksichtigung von 
gesperrten BKZs ein- bzw. auszuschalten. 
Wenn gesperrte BKZs bzw. Knoten nicht mit einbezogen werden sollen, dann findet
diese die Suche nicht, bei ausgewählten BKZs/Knoten und Einzel-BKZs werden sie
nicht angezeigt. Für die Berechnung des Diagramms sind diese ebenfalls dannn
nicht mehr relevant.

(iso-6525-i) Anzahl Stunden in der Legende des Diagramms darstellen 
Die Anzahl der Stunden eines BKZs wird jetzt in der Legende des Diagramms in 
Klammern angezeigt. Die Stunden sind hierbei alle summierten IST-Stunden des
ausgewählten Zeitraums ohne evtl. vorhandene Startwerte.

(iso-6526-i) Konten/BKZ-Anzeige bei "Stunden von" anders darstellen
Die Knoten/BKZs in den Select-Boxen werden jetzt in einer dicktengleichen
(http://de.wikipedia.org/wiki/Dickte) Schriftart dargestellt. Zusätzlich wurde
der Text des Knoten/BKZs folgendermaßen umgestellt:
	<KNOTEN/BKZ-NAME> (<KNOTEN/BKZ-KUERZEL>) [PFAD ZU KNOTEN/BKZ]
Der Name und das Kürzel werden im Firefox fett dargestellt.

(iso-6527-i) Neue Tabelle mit kumulierten/gruppierten IST-Werten pro BKZ bzw. pro Mitarbeiter 
BKZ-Cockpit enthält jetzt eine neue Tabelle, in der die Aufwänder der Mitarbeiter
pro BKZs summiert dargestellt werden. Die Tabelle kann über den Anzeige-Button,
bei vorheriger Selektion von Tabelle, aufgerufen werden.


============================================================================


R1.1.1 (17.Okt.2008)
- Beim Speichern eines Chart-Profils wird der IST-Wert sofort berechnet.
- Der Zeitraum kann sich nun auch in die Zukunft erstrecken. Allerdings werden
  im Diagramm nur Werte bis zum heutigen Tag ausgewertet. Angezeigt wird stets
  der komplette Zeitraum.
- Bei der Berechnung der Mitarbeiter-Infos werden bei der zweiten und dritten 
  Auswertung nur aktive Mitarbeiter herangezogen.
- Das Tool unterstützt jetzt auch die Auflösung 1680x1050.
- Die Legende des Diagramms kann mittels des Buttons "Legende verschieben" von
  links nach rechts bzw. von rechts nach links verschoben werden.
- Die Bezeichnung der X-Achse wird waagrecht dargestellt


============================================================================


Release "Stoppuhr" (R1.0) 29.Sep.2008

- Zum Einloggen in das Tool wird das Kürzel und Passwort des Active Directory
  Servers (normaler Windows Login) benötigt.
  
- Das Tool kann nur von Personen verwendet werden, die dafür berechtigt wurden.
  (Um die Berechtigung zu erhalten, bitte an das Tool Team (tool_team@isogmbh.de) 
  wenden.)

- Eine Auswahl von BKZs kann nur getroffen werden, wenn dem User bereits eine
  Grundmenge von BKZs zugeordnet wurde. Diese Zuordnung führt die Administration
  (Tool Team) durch. 

- Das Tool ist vorerst für die Auflösung 1280x1024 optimiert.
  (Sollten andere - vorallem kleinere - Auflösungen gewünscht werden, bitte beim
  Tool Team (tool_team@isogmbh.de) melden.)

